\relax 
\@writefile{toc}{\contentsline {section}{\numberline {1}Jawny schemat Eulera}{1}}
\@writefile{toc}{\contentsline {subsection}{\numberline {1.1}Wyniki}{1}}
\@writefile{lof}{\contentsline {figure}{\numberline {1}{\ignorespaces przedstawiaj\IeC {\k a}cy por\IeC {\'o}wnanie rozwi\IeC {\k a}zania numerycznego i dok\IeC {\l }adnego oraz b\IeC {\l }\IeC {\k a}d rozwi\IeC {\k a}zania numerycznego}}{1}}
\@writefile{lof}{\contentsline {figure}{\numberline {2}{\ignorespaces przedstawiaj\IeC {\k a}cy b\IeC {\l }\IeC {\k a}d w funkcji d\IeC {\l }ugo\IeC {\'s}ci skoku $dt$}}{2}}
\@writefile{toc}{\contentsline {section}{\numberline {2}Niejawny schemat Eulera}{2}}
\@writefile{lof}{\contentsline {figure}{\numberline {3}{\ignorespaces przedstawiaj\IeC {\k a}cy numeryczne rozwi\IeC {\k a}zanie r\IeC {\'o}wnania wraz z analitycznym, oraz b\IeC {\l }\IeC {\k a}d rozwi\IeC {\k a}zania numerycznego}}{3}}
\@writefile{lof}{\contentsline {figure}{\numberline {4}{\ignorespaces przedstawiaj\IeC {\k a}cy por\IeC {\'o}wnanie b\IeC {\l }\IeC {\k e}d\IeC {\'o}w uzyskanych jawn\IeC {\k a} i niejawn\IeC {\k a} metod\IeC {\k a}}}{3}}
\@writefile{toc}{\contentsline {subsection}{\numberline {2.1}Wniosek}{4}}
\@writefile{toc}{\contentsline {section}{\numberline {3}Iteracja Newtona}{4}}
\@writefile{lof}{\contentsline {figure}{\numberline {5}{\ignorespaces przedstawiaj\IeC {\k a}cy b\IeC {\l }\IeC {\k a}d w wszystkich metodach omawianych do tej pory}}{4}}
\@writefile{lof}{\contentsline {figure}{\numberline {6}{\ignorespaces przedstawiaj\IeC {\k a}cy ilo\IeC {\'s}\IeC {\'c} iteracji metody newtona}}{5}}
\@writefile{toc}{\contentsline {section}{\numberline {4}Eliminacja b\IeC {\l }\IeC {\k e}du przy pomocy ekstrapolacji Richardsona}{5}}
\@writefile{lof}{\contentsline {figure}{\numberline {7}{\ignorespaces przedstawiaj\IeC {\k a}cy dok\IeC {\l }adno\IeC {\'s}\IeC {\'c} ekstrapolacji Richardsona}}{6}}
\@writefile{lof}{\contentsline {figure}{\numberline {8}{\ignorespaces por\IeC {\'o}wnuj\IeC {\k a}cy dok\IeC {\l }adno\IeC {\'s}\IeC {\'c} metod\IeC {\k e} Eulera, z ekstrapolacj\IeC {\k a} Richardsona}}{6}}
\@writefile{toc}{\contentsline {section}{\numberline {5}Automatyczny dob\IeC {\'o}r kroku czasowego}{7}}
\@writefile{lof}{\contentsline {figure}{\numberline {9}{\ignorespaces przedstawiaj\IeC {\k a}cy rozwi\IeC {\k a}zanie numeryczne wraz z analitycznym oraz warto\IeC {\'s}\IeC {\'c} skoku czasowego}}{7}}
\@writefile{lof}{\contentsline {figure}{\numberline {10}{\ignorespaces pokazuj\IeC {\k a}cy b\IeC {\l }\IeC {\k a}d oraz warto\IeC {\'s}\IeC {\'c} skoku czasowego}}{8}}
\@writefile{lof}{\contentsline {figure}{\numberline {11}{\ignorespaces przedstawiaj\IeC {\k a}cy b\IeC {\l }\IeC {\k a}d automatycznego doboru skoku w por\IeC {\'o}wnaniu do b\IeC {\l }\IeC {\k e}du jawnej metody Eulera}}{8}}
\@writefile{toc}{\contentsline {section}{\numberline {6}Schemat Rungego-Kutty}{9}}
\@writefile{lof}{\contentsline {figure}{\numberline {12}{\ignorespaces funkcji y(x)}}{9}}
\@writefile{lof}{\contentsline {figure}{\numberline {13}{\ignorespaces przedstawiaj\IeC {\k a}cy b\IeC {\l }\IeC {\k a}d wyznaczenia warto\IeC {\'s}ci x}}{10}}
